{
  "HorizonLayout": [


    {
      "layout" : "sliderItem",
      "name": {
        "en": "Le ultime news",
        "ab": "Le ultime news",
        "vi": "Le ultime news"
      },
      "category": 21,
      "limit": 5
    },

    {
      "layout": "horizontal tiles",
      "elements": [
        {
          "text":"LIVE",
          "color": "0xFF21E590",
          "url": "https://www.socialstation.it/live"
        },
        {
          "text":"SOCIAL TV",
          "color": "0xFFFF8C48",
          "url": "https://www.socialstation.it/socialtv"
        }

      ]

    },


    {
      "layout": "staggered",
      "category": 51
    },


    {
      "name": {
        "en": "Le nostre redazioni"
      },

      "layout" : "largeCardHorizontalListItems",
      "imageBorder": 20.0,
      "category": 60
    }




  ],

  "Setting": {
    "MainColor": "#F49034",
    "ProductListLayout": "list"
  },



  "contest" : {
    "category": 213,
    "elements": [
      {
        "name": "ARTE & SICUREZZA",
        "color1": {
          "r": 255,
          "g": 86,
          "b": 115,
          "o": 100
        },
        "color2": {
          "r": 255,
          "g": 140,
          "b": 72,
          "o": 100
        }
      },
      {
        "name": "CAPRI OPERA FESTIVAL YOUNG EDITION",
        "color1": {
          "r": 131,
          "g": 43,
          "b": 246,
          "o": 100
        },
        "color2": {
          "r": 251,
          "g": 69,
          "b": 105,
          "o": 100
        }
      },

      {
        "name": "FACCIO RADIO A SCUOLA",
        "color1": {
          "r": 59,
          "g": 64,
          "b": 254,
          "o": 100
        },
        "color2": {
          "r": 45,
          "g": 206,
          "b": 248,
          "o": 100
        }
      },
      {
        "name": "FARE BENE... FARE SCUOLA!",
        "color1": {
          "r": 0,
          "g": 157,
          "b": 197,
          "o": 100
        },
        "color2": {
          "r": 33,
          "g": 229,
          "b": 144,
          "o": 100
        }
      },
      {
        "name": "LIP SUB SCHOOL CONTEST",
        "color1": {
          "r": 210,
          "g": 54,
          "b": 210,
          "o": 100
        },
        "color2": {
          "r": 255,
          "g": 135,
          "b": 14,
          "o": 100
        }
      },
      {
        "name": "NAPUL' È",
        "color1": {
          "r": 254,
          "g": 50,
          "b": 126,
          "o": 100
        },
        "color2": {
          "r": 92,
          "g": 81,
          "b": 255,
          "o": 100
        }
      },
      {
        "name": "SELFIE DI CLASSE",
        "color1": {
          "r": 44,
          "g": 227,
          "b": 241,
          "o": 100
        },
        "color2": {
          "r": 97,
          "g": 67,
          "b": 255,
          "o": 100
        }
      },
      {
        "name": "SOCIAL SONG",
        "color1": {
          "r": 255,
          "g": 86,
          "b": 115,
          "o": 100
        },
        "color2": {
          "r": 255,
          "g": 140,
          "b": 72,
          "o": 100
        }
      }
    ]
  },

  "network" : {
    "category": 238,
    "elements": [
      {
        "name": "ARTE & SICUREZZA",
        "color1": {
          "r": 255,
          "g": 86,
          "b": 115,
          "o": 100
        },
        "color2": {
          "r": 255,
          "g": 140,
          "b": 72,
          "o": 100
        }
      },
      {
        "name": "CAPRI OPERA FESTIVAL YOUNG EDITION",
        "color1": {
          "r": 131,
          "g": 43,
          "b": 246,
          "o": 100
        },
        "color2": {
          "r": 251,
          "g": 69,
          "b": 105,
          "o": 100
        }
      },

      {
        "name": "FACCIO RADIO A SCUOLA",
        "color1": {
          "r": 59,
          "g": 64,
          "b": 254,
          "o": 100
        },
        "color2": {
          "r": 45,
          "g": 206,
          "b": 248,
          "o": 100
        }
      },
      {
        "name": "FARE BENE... FARE SCUOLA!",
        "color1": {
          "r": 0,
          "g": 157,
          "b": 197,
          "o": 100
        },
        "color2": {
          "r": 33,
          "g": 229,
          "b": 144,
          "o": 100
        }
      },
      {
        "name": "LIP SUB SCHOOL CONTEST",
        "color1": {
          "r": 210,
          "g": 54,
          "b": 210,
          "o": 100
        },
        "color2": {
          "r": 255,
          "g": 135,
          "b": 14,
          "o": 100
        }
      },
      {
        "name": "NAPUL' È",
        "color1": {
          "r": 254,
          "g": 50,
          "b": 126,
          "o": 100
        },
        "color2": {
          "r": 92,
          "g": 81,
          "b": 255,
          "o": 100
        }
      },
      {
        "name": "SELFIE DI CLASSE",
        "color1": {
          "r": 44,
          "g": 227,
          "b": 241,
          "o": 100
        },
        "color2": {
          "r": 97,
          "g": 67,
          "b": 255,
          "o": 100
        }
      },
      {
        "name": "SOCIAL SONG",
        "color1": {
          "r": 255,
          "g": 86,
          "b": 115,
          "o": 100
        },
        "color2": {
          "r": 255,
          "g": 140,
          "b": 72,
          "o": 100
        }
      }
    ]
  },

  "events": {
    "category": 212,
    "elements": [

      {
        "name": "CAPRI OPERA FESTIVAL",
        "color1": {
          "r": 255,
          "g": 86,
          "b": 115,
          "o": 100
        },
        "color2": {
          "r": 255,
          "g": 140,
          "b": 72,
          "o": 100
        }
      },
      {
        "name": "FIRST LEGO LEAGUE",
        "color1": {
          "r": 131,
          "g": 43,
          "b": 246,
          "o": 100
        },
        "color2": {
          "r": 251,
          "g": 69,
          "b": 105,
          "o": 100
        }
      },

      {
        "name": "FUTURO REMOTO",
        "color1": {
          "r": 59,
          "g": 64,
          "b": 254,
          "o": 100
        },
        "color2": {
          "r": 45,
          "g": 206,
          "b": 248,
          "o": 100
        }
      },
      {
        "name": "INNOVATION VILLAGE",
        "color1": {
          "r": 0,
          "g": 157,
          "b": 197,
          "o": 100
        },
        "color2": {
          "r": 33,
          "g": 229,
          "b": 144,
          "o": 100
        }
      },
      {
        "name": "NAPOLI CITTA LIBRO",
        "color1": {
          "r": 210,
          "g": 54,
          "b": 210,
          "o": 100
        },
        "color2": {
          "r": 255,
          "g": 135,
          "b": 14,
          "o": 100
        }
      },
      {
        "name": "NAPOLI BIKE FESTIVAL",
        "color1": {
          "r": 254,
          "g": 50,
          "b": 126,
          "o": 100
        },
        "color2": {
          "r": 92,
          "g": 81,
          "b": 255,
          "o": 100
        }
      },
      {
        "name": "STREET TOMBOLA",
        "color1": {
          "r": 44,
          "g": 227,
          "b": 241,
          "o": 100
        },
        "color2": {
          "r": 97,
          "g": 67,
          "b": 255,
          "o": 100
        }
      },
      {
        "name": "OPERA DOMANI",
        "color1": {
          "r": 255,
          "g": 86,
          "b": 115,
          "o": 100
        },
        "color2": {
          "r": 255,
          "g": 140,
          "b": 72,
          "o": 100
        }
      }
    ]
  }







}

