{
  "project_info": {
    "project_number": "412823237422",
    "firebase_url": "https://fluxstore-inspireui.firebaseio.com",
    "project_id": "fluxstore-inspireui",
    "storage_bucket": "fluxstore-inspireui.appspot.com"
  },
  "client": [
    {
      "client_info": {
        "mobilesdk_app_id": "1:412823237422:android:ec0e0abee17e848c",
        "android_client_info": {
          "package_name": "com.inspireui.fnews"
        }
      },
      "oauth_client": [
        {
          "client_id": "412823237422-4tr6lod82roms8nhmbv11gob5tmdatsi.apps.googleusercontent.com",
          "client_type": 3
        }
      ],
      "api_key": [
        {
          "current_key": "AIzaSyDSNYVC-8DU9BTcyqkeN9c5pgVhwOBAvGg"
        }
      ],
      "services": {
        "appinvite_service": {
          "other_platform_oauth_client": [
            {
              "client_id": "412823237422-4tr6lod82roms8nhmbv11gob5tmdatsi.apps.googleusercontent.com",
              "client_type": 3
            },
            {
              "client_id": "412823237422-qpqo1cdqjtnbgpb84i9c8b0vht9i5hnm.apps.googleusercontent.com",
              "client_type": 2,
              "ios_info": {
                "bundle_id": "com.inspireui.fnews"
              }
            }
          ]
        }
      }
    }
  ],
  "configuration_version": "1"
}